﻿<svg height="32" viewBox="0 0 32 32" width="32" xmlns="http://www.w3.org/2000/svg">
	<g fill="none" fill-rule="evenodd">
		<path d="m30.4390244 15.8292683c0 8.1890248-6.6402435 14.8292683-14.8292683 14.8292683-8.189024 0-14.82926829-6.6402435-14.82926829-14.8292683 0-8.18902401 6.64024429-14.8292683 14.82926829-14.8292683 8.1890248 0 14.8292683 6.64024429 14.8292683 14.8292683z" fill="#01579b"></path>
		<path d="m23.4146341 13.3323169c0-.4695118 0-2.2652433-1.1707317-3.66768236-.0792679-.07926869-.155488-.23475669-.155488-.31402459-.0792679-.07621932-.0792679-.155488-.1554872-.310976l-.1585366-.2347559-.155488-.2347559c-.155488-.23475591-.2347559-.39024391-.2347559-.39024391-.310976-.46646322-.3902439-1.0914638-.0762201-1.63719492.0762201-.15853659.2347567-.31402459.310976-.46951259-.0762193-.0792679-.155488-.155488-.2347559-.155488 0 0 0 0-.0762201 0-.2347559-.15548722-.4695118-.3140238-.6249998-.4695118l-.5457319-.39024391c-.3902439-.2347559-.6249998-.310976-.6249998-.3902439-.5457319-.310976-.8597557-.85670712-.7804878-1.48170771.0792687-.6249998.4695126-1.1707317 1.0914638-1.32621892.0792679 0 .2347559-.07926869.3902439-.07926869 0 0 0 0-.0762201-.0792679-1.4054876-.466464-2.9664632-.7012199-4.5274388-.7012199-5.77438986 0-10.84756059 3.35670712-13.26829269 8.19512195v.3902439c0 5.61890265 4.91768274 10.14634145 10.92682929 10.14634145 4.6036589 0 8.5060979-2.6524386 10.1463414-6.3993904z" fill="#0277bd"></path>
		<path d="m20.2926829 3.34146341s.2347559-.0792679.7012199-.0792679h.7804878c.3140238 0 .6249998.0792679 1.0152437.15853659.3902439.07621931.7804878.23170731 1.1707317.3902439.390244.15548722.8597558.3902439 1.2499997.70121912.3902439.2347559.7804878.62499981 1.1707317.93597581.3902439.31402458.7012199.7804878 1.0152445 1.1707317.2317073.46951181.5457311.85975571.7804878 1.32621971.2317073.46951181.3902439.93902439.5457311 1.40548761.155488.46951181.2347567.93597585.310976 1.32621975.0792679.4695118.0792679.8597557.0792679 1.1707317v.5487805c0 .1554872 0 .3109752-.0792679.4664632 0 .3140246-.0762193.5457319-.0762193.7804878 0 .3902439-.0792687.6249998-.0792687.6249998s-.155488-.2347559-.3109752-.6249998c-.0792687-.155488-.2347567-.3902439-.3140246-.7012199-.0762193-.2347559-.2347559-.5457311-.3902439-.8597557-.155488-.310976-.310976-.6249998-.4664632-1.0152437-.1585366-.310976-.3902439-.7012199-.5487805-1.09146384-.155488-.39024391-.3902439-.70121913-.6219513-1.09146303-.2347566-.3902439-.4695125-.70426849-.7042684-1.01524449-.2347559-.3140238-.4664633-.7042677-.7804878-.93597502-.310976-.31402459-.5457319-.62500059-.8567072-.85975649-.2347567-.31097522-.5487805-.5457319-.8597565-.7804878-.3109752-.23475591-.5457319-.46951181-.8597557-.62499981-.2317073-.2347559-.5457319-.3902439-.7804878-.5457319-.2317073-.155488-.466464-.31097522-.6219512-.3902439-.2347567-.23475591-.4695126-.39024391-.4695126-.39024391z" fill="#fff176"></path>
		<path d="m30.5182931 10.8353662c-.2347567-1.71951215-.9390244-3.28048776-1.7195122-4.37195157-.3902439-.5457319-.7804878-.9359758-1.0121951-1.1707317-.3140246-.23475591-.4695126-.39024391-.4695126-.39024391s0 .23475591.0792687.62499981c.0762193.3902439.0762193.8567079.1554872 1.48170771.0762201.31402458.0762201.6249998.155488.9359758-.3109752-.466464-.7012191-.9359758-1.0914631-1.2469518-.3902439-.39024391-.8597564-.62499981-1.0945123-.78048781-.3902439-.15548722-.5457319-.2347559-.5457319-.2347559s.0792686.155488.155488.46951258c.0792679.31097522.2347559.70121913.3902439 1.24695103s.3902439 1.24999961.6249998 1.95121951c-.4695118-.5457319-.9359758-1.01524371-1.4054876-1.32621971-.5457319-.31097522-1.0152438-.5457319-1.4054877-.6249998-.466464-.155488-.7012199-.155488-.7012199-.155488s.155488.155488.310976.46951258c.0792679.15548722.2347559.31097522.3140238.54573113.155488.23475668.2347567.466464.3902439.7012199.2347567.4695118.545732 1.01524371.7804879 1.64024355.155488.310976.2347566.6250005.3902439.9359758.0762201.310976.310976.6249998.3902439 1.0152437.155488.310976.2347566.6250006.3902439 1.0152445.0762201.3109752.2347566.6219512.310976 1.0121951.0792679.3140238.2347559.6249998.3140245.9390244.0762194.3109752.1554873.6219512.3109753.8567071.2347559.5457319.3902439 1.0152437.5457319 1.3262197.155488.3140238.2347559.4695118.2347559.4695118s.0792687-.155488.2347559-.5457319c.0762201-.1554872.155488-.3902439.155488-.6249998.0792687-.2347559.155488-.5457319.155488-.8597557 0-.2317073.0792679-.466464.0792679-.7012199.0762201.2347559.155488.3902439.155488.3902439s.0792687-.155488.2347559-.4695118c.0762201-.155488.155488-.310976.2347567-.5457319v-.0762193c0 .1554872 0 .3902439.0762193.5457311 0 .310976.0792679.5457319.0792679.7804878v.7012199c0 .3902439.0762201.6249998.0762201.6249998s.1585366-.155488.3902439-.4695118c.0792679-.155488.2347559-.310976.3902439-.5457319.1585366-.2347559.2347559-.4664632.3902439-.7804878.1585366-.310976.2347559-.6249998.3140238-1.0152437.0762201-.3902439.155488-.7804878.2347567-1.1707317.0762193-.3902439.0762193-.8567079.0762193-1.2469518.0792679-.4695118 0-.9359751-.0762193-1.326219z" fill="#fdd835"></path>
		<path d="m31.2987809 12.5518291c0-.3902439-.0792687-.6249998-.0792687-.6249998s-.155488.2347559-.3902439.5457319c-.2347559.3902439-.4695118.8597557-.7804878 1.4847563-.2347559.5457311-.5457319 1.1707317-.8597557 1.7926829 0-.6219512 0-1.1707317-.0762201-1.7164636-.0792679-.4664632-.1554872-.8567071-.2347559-1.246951-.155488-.3902439-.2347559-.7804878-.3902439-1.0945124-.2347559-.7012199-.5457319-1.1707317-.7804878-1.5609756-.2347559-.39024395-.3902439-.54573195-.3902439-.54573195s-.0792679.93597585-.0792679 2.34146345c0 .7012199-.0762201 1.4054876-.155488 2.2621955 0 .3902439-.0762193.7804878-.0762193 1.2499996 0 .3902439-.0792687.8597565-.1585366 1.2500004v.3109752c-.0762201-.7012191-.310976-1.4054876-.6219513-1.8719508-.2347566-.5487805-.5487804-.9390244-.7804878-1.1707317-.3140245-.3902439-.4695125-.4695126-.4695125-.4695126v.5457319c0 .3140246 0 .7804878-.0792679 1.3262197-.0762201 1.0152437-.2317074 2.3414634-.3902439 3.591463-.0762201.310976-.155488.6249998-.155488.9359758-.0762194.3140246-.155488.6249998-.155488.9359758-.079268.3140238-.155488.6249998-.234756.8597557-.0762193.310976-.155488.5457319-.155488.7804878-.0792679.2347559-.0792679.5457319-.155488.7012199-.0792679.2347559-.0792679.3902439-.1554872.6249998-.0792687.3902439-.0792687.6249998-.0792687.6249998s.155488-.0792679.4695126-.3109752c.3109753-.2347567.7012192-.4695126 1.0914631-.9390244.155488-.2317073.3902439-.466464.6249998-.7804878.155488-.310976.3902439-.5457319.5457319-.8567079 0 .2347567-.0792679.466464-.0792679.7012199-.0762201.2347559-.0762201.5457319-.155488.7042685-.155488.4664632-.155488.7012191-.155488.7012191.0792686-.0792679.310976 0 .5457319.0792687 0 .0762193-.0762194.1554872-.0762194.1554872-.0792686.2347567-.1585365.466464-.2347566.7012199-.1554873.3902439-.2347559.6249999-.2347559.6249999s.2347559-.079268.5457319-.3109753c.155488-.1585366.3902439-.2347567.6249998-.4695126.2347559-.155488.4695126-.3902439.7012199-.7012191.2347559-.2347567.4695118-.5487805.7804878-.8597565.2347559-.3109752.4695118-.7012191.7042677-1.091463.466464-.7804878.8567079-1.6402443 1.1707317-2.5.310976-.8567079.6250006-1.7926829.7804878-2.6524394.155488-.8597557.2347567-1.6402435.310976-2.3414634 0-.7012191 0-1.2499996-.0762193-1.7164636z" fill="#ffb300"></path>
		<path d="m29.1890248 20.8231711c-.310976.1585366-.6219512.4695118-1.0914638.7804878-.6249998.4695118-1.3262197 1.0945116-2.0304874 1.7957315.0792679-.2347559.2347559-.4664632.3140238-.7012199.2347566-.7042677.310976-1.3262189.3902439-1.8749994 0-.5457319 0-1.0121951-.0792679-1.3262197-.0762194-.3902439-.155488-.5457319-.155488-.5457319s-.155488.155488-.3109753.3902439c-.1585365.2347559-.4695125.6249998-.7804878 1.0152437-.3140245.3902439-.6250005.9359758-.9390243 1.4054884-.0762201.0762193-.0762201.1554872-.155488.2317073.155488-.466464.155488-1.0121951.155488-1.4817077 0-.6249998-.155488-1.2499996-.310976-1.7164636-.155488-.4695118-.390244-.8597557-.545732-1.0945116-.0792679-.155488-.2347559-.310976-.2347559-.310976s-.0792679.155488-.155488.4695126c-.0792679.2317073-.2347559.6219512-.3902439 1.091463-.1554872.3902439-.2347559.8597565-.3902439 1.4054876-.0792679.2347567-.1554872.466464-.2347559.7804878-.0792679.2347567-.155488.466464-.2347559.6250006-1.4817077 1.4817069-3.2774392 1.8719508-4.9939028 1.9512195-.935975 0-1.7957315-.1585366-2.5762193-.3902439-1.1707317-.3902439-2.2621947-1.0945124-3.2774392-2.0304882 1.4817077.155488 2.8871953-.155488 4.057927-.7012191l1.9512195-1.2500004c.2347559-.0792679.4695126-.0792679.7012199 0 .4695118-.0792679.6249998-.3109752.4695118-.7804878-.2347559-.3109752-.6249998-.6249998-1.0152437-.8597557-1.0152437-.5457319-2.0274388-.466464-3.1219512.2347559-1.0152437.5457319-1.9512195.4695118-2.9664632-.0762193-2.41768354-1.2500004-1.48170774-4.4512195 1.0945116-2.810976.155488-.7804878-.0792679-1.6402435-.5457311-2.4969514-2.26524414-4.13719495.3109752-7.49390208 1.1707317-8.03963398-1.5609756.155488-2.96646404.85975649-4.21646365 2.0304882-8.03963395-.93902439-8.74085385 6.86585368-8.74085385 6.94512158l.93597581-.8597557c-.310976.8597557-.54573191 1.7195122-.62499981 2.6554872-.310976 3.0426833.54878049 6.0091465 2.57621932 8.9756097 3.12195122 3.9786592 8.03963398 6.3993905 12.72256078 6.3993905 5.3079266 0 8.7408539-1.9512195 11.0060979-4.4481709.1554873-.1554873.3109753-.3140238.4664633-.4695118.4695118-.5457319.9359758-1.0914639 1.3262197-1.7164637.3902439-.5457319.6249998-1.1707317.8597557-1.7164636.155488-.5457311.310976-1.0152437.3902439-1.3262189 0-.2347567 0-.4695126 0-.4695126s-.155488.0792687-.4695118.310976z" fill="#ff9800"></path>
		<path d="m6.24390244 18.9512195c-.155488-5.4634146 3.35670712-4.993902 5.15243946-4.3719508-1.2500004-.2317073-1.79573234.9390244-1.2500004 2.0304874-.23475594 0-2.65243867-.2347559-3.90243906 2.3414634zm4.91768276 2.2621955c1.4817077.1585366 2.8871953-.155488 4.057927-.7012199l1.9512195-1.2499996c.155488-.0762201.3902439-.0762201.5457319 0-2.2621955-1.3262197-4.6829268 1.4847555-9.99085345.6249998 1.32926829 1.0152437 3.43597505 1.3262197 3.43597505 1.3262197zm-.1554872-12.79878085c-.1585366 1.1707317.0762193 2.57621935.8567071 4.05792705 1.0945124-.6249998 2.1859754-1.3262197 2.1859754-1.3262197s1.5609756-1.56097565 0-1.56097565c-1.4817069 0-2.4969514-.6249998-3.0426825-1.1707317zm-6.08841527-1.64024352c-.70426771-.62195122-1.79573151-1.87195161-1.79573151-3.43292722 0 0-1.87195083 3.04268332-1.17073171 5.46341464.7012199-.85975571 1.71646361-1.56097561 2.96646322-2.03048742z" fill="#ef6c00" fill-rule="nonzero"></path>
		<path d="m11.8628051 12.4725612c1.0945124-.6249998 2.1859754-1.3262197 2.1859754-1.3262197s.155488-.155488.310976-.3109753l-.310976-.4695125h-2.9664632c.155488.7012199.3902439 1.4054876.7804878 2.1067075z" fill="#ffcc80"></path>
		<path d="m14.0487805 9.58536585c-.2347559 0-.4695118 0-.7012191-.0792679l-.0792687.0792679s.6249998 1.01524375.7804878 1.56097565c0 0 1.5609756-1.56097565 0-1.56097565z" fill="#5d4037"></path>
	</g>
</svg>